D:\Projects\web\IdeaProjects\robots_idea\src\main\java\com\example\robots_idea\RobotsIdeaApplication.java
D:\Projects\web\IdeaProjects\robots_idea\src\main\java\com\example\robots_idea\service\RobotService.java
D:\Projects\web\IdeaProjects\robots_idea\src\main\java\com\example\robots_idea\controller\RobotController.java
D:\Projects\web\IdeaProjects\robots_idea\src\main\java\com\example\robots_idea\model\Robot.java
